{
  "releases": [
    {
      "name": "F40F",
      "long_name": "Fedora 40 Flatpaks",
      "version": "40",
      "id_prefix": "FEDORA-FLATPAK",
      "branch": "f40",
      "dist_tag": "f40-flatpak",
      "stable_tag": "f40-flatpak-updates",
      "testing_tag": "f40-flatpak-updates-testing",
      "candidate_tag": "f40-flatpak-updates-candidate",
      "pending_signing_tag": "",
      "pending_testing_tag": "f40-flatpak-updates-testing-pending",
      "pending_stable_tag": "f40-flatpak-updates-pending",
      "override_tag": "f40-flatpak-override",
      "mail_template": "fedora_errata_template",
      "state": "current",
      "composed_by_bodhi": true,
      "create_automatic_updates": false,
      "package_manager": "unspecified",
      "testing_repository": null,
      "released_on": null,
      "eol": null,
      "setting_status": null
    },
    {
      "name": "F41",
      "long_name": "Fedora 41",
      "version": "41",
      "id_prefix": "FEDORA",
      "branch": "f41",
      "dist_tag": "f41",
      "stable_tag": "f41",
      "testing_tag": "f41-updates-testing",
      "candidate_tag": "f41-updates-candidate",
      "pending_signing_tag": "f41-signing-pending",
      "pending_testing_tag": "f41-updates-testing-pending",
      "pending_stable_tag": "f41-updates-pending",
      "override_tag": "f41-override",
      "mail_template": "fedora_errata_template",
      "state": "pending",
      "composed_by_bodhi": true,
      "create_automatic_updates": false,
      "package_manager": "dnf",
      "testing_repository": "updates-testing",
      "released_on": null,
      "eol": null,
      "setting_status": "post_beta"
    },
    {
      "name": "F41C",
      "long_name": "Fedora 41 Containers",
      "version": "41",
      "id_prefix": "FEDORA-CONTAINER",
      "branch": "f41",
      "dist_tag": "f41-container",
      "stable_tag": "f41-container-updates",
      "testing_tag": "f41-container-updates-testing",
      "candidate_tag": "f41-container-updates-candidate",
      "pending_signing_tag": "",
      "pending_testing_tag": "f41-container-updates-testing-pending",
      "pending_stable_tag": "f41-container-updates-pending",
      "override_tag": "f41-container-override",
      "mail_template": "fedora_errata_template",
      "state": "pending",
      "composed_by_bodhi": true,
      "create_automatic_updates": false,
      "package_manager": "unspecified",
      "testing_repository": null,
      "released_on": null,
      "eol": null,
      "setting_status": null
    },
    {
      "name": "F41F",
      "long_name": "Fedora 41 Flatpaks",
      "version": "41",
      "id_prefix": "FEDORA-FLATPAK",
      "branch": "f41",
      "dist_tag": "f41-flatpak",
      "stable_tag": "f41-flatpak-updates",
      "testing_tag": "f41-flatpak-updates-testing",
      "candidate_tag": "f41-flatpak-updates-candidate",
      "pending_signing_tag": "",
      "pending_testing_tag": "f41-flatpak-updates-testing-pending",
      "pending_stable_tag": "f41-flatpak-updates-pending",
      "override_tag": "f41-flatpak-override",
      "mail_template": "fedora_errata_template",
      "state": "pending",
      "composed_by_bodhi": true,
      "create_automatic_updates": false,
      "package_manager": "unspecified",
      "testing_repository": null,
      "released_on": null,
      "eol": null,
      "setting_status": null
    },
    {
      "name": "F42",
      "long_name": "Fedora 42",
      "version": "42",
      "id_prefix": "FEDORA",
      "branch": "rawhide",
      "dist_tag": "f42",
      "stable_tag": "f42",
      "testing_tag": "f42-updates-testing",
      "candidate_tag": "f42-updates-candidate",
      "pending_signing_tag": "f42-signing-pending",
      "pending_testing_tag": "f42-updates-testing-pending",
      "pending_stable_tag": "f42-updates-pending",
      "override_tag": "f42-override",
      "mail_template": "fedora_errata_template",
      "state": "pending",
      "composed_by_bodhi": false,
      "create_automatic_updates": true,
      "package_manager": "unspecified",
      "testing_repository": null,
      "released_on": null,
      "eol": null,
      "setting_status": "pre_beta"
    },
    {
      "name": "F42C",
      "long_name": "Fedora 42 Containers",
      "version": "42",
      "id_prefix": "FEDORA-CONTAINER",
      "branch": "f42",
      "dist_tag": "f42-container",
      "stable_tag": "f42-container-updates",
      "testing_tag": "f42-container-updates-testing",
      "candidate_tag": "f42-container-updates-candidate",
      "pending_signing_tag": "",
      "pending_testing_tag": "f42-container-updates-testing-pending",
      "pending_stable_tag": "f42-container-updates-pending",
      "override_tag": "f42-container-override",
      "mail_template": "fedora_errata_template",
      "state": "pending",
      "composed_by_bodhi": true,
      "create_automatic_updates": false,
      "package_manager": "unspecified",
      "testing_repository": null,
      "released_on": null,
      "eol": null,
      "setting_status": "pre_beta"
    },
    {
      "name": "F42F",
      "long_name": "Fedora 42 Flatpaks",
      "version": "42",
      "id_prefix": "FEDORA-FLATPAK",
      "branch": "f42",
      "dist_tag": "f42-flatpak",
      "stable_tag": "f42-flatpak-updates",
      "testing_tag": "f42-flatpak-updates-testing",
      "candidate_tag": "f42-flatpak-updates-candidate",
      "pending_signing_tag": "",
      "pending_testing_tag": "f42-flatpak-updates-testing-pending",
      "pending_stable_tag": "f42-flatpak-updates-pending",
      "override_tag": "f42-flatpak-override",
      "mail_template": "fedora_errata_template",
      "state": "pending",
      "composed_by_bodhi": true,
      "create_automatic_updates": false,
      "package_manager": "unspecified",
      "testing_repository": null,
      "released_on": null,
      "eol": null,
      "setting_status": null
    }
  ],
  "page": 2,
  "pages": 2,
  "rows_per_page": 10,
  "total": 17
}
