{
  "releases": [
    {
      "name": "ELN",
      "long_name": "Fedora ELN",
      "version": "eln",
      "id_prefix": "FEDORA",
      "branch": "eln",
      "dist_tag": "eln",
      "stable_tag": "eln",
      "testing_tag": "eln-updates-testing",
      "candidate_tag": "eln-updates-candidate",
      "pending_signing_tag": "eln-signing-pending",
      "pending_testing_tag": "eln-updates-testing-pending",
      "pending_stable_tag": "eln-updates-pending",
      "override_tag": "eln-override",
      "mail_template": "fedora_errata_template",
      "state": "pending",
      "composed_by_bodhi": false,
      "create_automatic_updates": true,
      "package_manager": "unspecified",
      "testing_repository": null,
      "released_on": null,
      "eol": null,
      "setting_status": "pre_beta"
    },
    {
      "name": "EPEL-10.0",
      "long_name": "Fedora EPEL 10.0",
      "version": "10",
      "id_prefix": "FEDORA-EPEL",
      "branch": "epel10",
      "dist_tag": "epel10.0",
      "stable_tag": "epel10.0",
      "testing_tag": "epel10.0-testing",
      "candidate_tag": "epel10.0-testing-candidate",
      "pending_signing_tag": "epel10.0-signing-pending",
      "pending_testing_tag": "epel10.0-testing-pending",
      "pending_stable_tag": "epel10.0-pending",
      "override_tag": "epel10.0-override",
      "mail_template": "fedora_epel_legacy_errata_template",
      "state": "pending",
      "composed_by_bodhi": false,
      "create_automatic_updates": true,
      "package_manager": "unspecified",
      "testing_repository": null,
      "released_on": null,
      "eol": null,
      "setting_status": "pre_beta"
    },
    {
      "name": "EPEL-8",
      "long_name": "Fedora EPEL 8",
      "version": "8",
      "id_prefix": "FEDORA-EPEL",
      "branch": "epel8",
      "dist_tag": "epel8",
      "stable_tag": "epel8",
      "testing_tag": "epel8-testing",
      "candidate_tag": "epel8-testing-candidate",
      "pending_signing_tag": "epel8-signing-pending",
      "pending_testing_tag": "epel8-testing-pending",
      "pending_stable_tag": "epel8-pending",
      "override_tag": "epel8-override",
      "mail_template": "fedora_epel_legacy_errata_template",
      "state": "current",
      "composed_by_bodhi": true,
      "create_automatic_updates": false,
      "package_manager": "unspecified",
      "testing_repository": null,
      "released_on": null,
      "eol": null,
      "setting_status": null
    },
    {
      "name": "EPEL-9",
      "long_name": "Fedora EPEL 9",
      "version": "9",
      "id_prefix": "FEDORA-EPEL",
      "branch": "epel9",
      "dist_tag": "epel9",
      "stable_tag": "epel9",
      "testing_tag": "epel9-testing",
      "candidate_tag": "epel9-testing-candidate",
      "pending_signing_tag": "epel9-signing-pending",
      "pending_testing_tag": "epel9-testing-pending",
      "pending_stable_tag": "epel9-pending",
      "override_tag": "epel9-override",
      "mail_template": "fedora_epel_legacy_errata_template",
      "state": "current",
      "composed_by_bodhi": true,
      "create_automatic_updates": false,
      "package_manager": "unspecified",
      "testing_repository": null,
      "released_on": null,
      "eol": null,
      "setting_status": null
    },
    {
      "name": "EPEL-9N",
      "long_name": "Fedora EPEL 9 Next",
      "version": "9",
      "id_prefix": "FEDORA-EPEL-NEXT",
      "branch": "epel9-next",
      "dist_tag": "epel9-next",
      "stable_tag": "epel9-next",
      "testing_tag": "epel9-next-testing",
      "candidate_tag": "epel9-next-testing-candidate",
      "pending_signing_tag": "epel9-next-signing-pending",
      "pending_testing_tag": "epel9-next-testing-pending",
      "pending_stable_tag": "epel9-next-pending",
      "override_tag": "epel9-next-override",
      "mail_template": "fedora_errata_template",
      "state": "current",
      "composed_by_bodhi": true,
      "create_automatic_updates": false,
      "package_manager": "unspecified",
      "testing_repository": null,
      "released_on": null,
      "eol": null,
      "setting_status": null
    },
    {
      "name": "F39",
      "long_name": "Fedora 39",
      "version": "39",
      "id_prefix": "FEDORA",
      "branch": "f39",
      "dist_tag": "f39",
      "stable_tag": "f39-updates",
      "testing_tag": "f39-updates-testing",
      "candidate_tag": "f39-updates-candidate",
      "pending_signing_tag": "f39-signing-pending",
      "pending_testing_tag": "f39-updates-testing-pending",
      "pending_stable_tag": "f39-updates-pending",
      "override_tag": "f39-override",
      "mail_template": "fedora_errata_template",
      "state": "current",
      "composed_by_bodhi": true,
      "create_automatic_updates": false,
      "package_manager": "dnf",
      "testing_repository": "updates-testing",
      "released_on": null,
      "eol": "2024-11-12",
      "setting_status": null
    },
    {
      "name": "F39C",
      "long_name": "Fedora 39 Containers",
      "version": "39",
      "id_prefix": "FEDORA-CONTAINER",
      "branch": "f39",
      "dist_tag": "f39-container",
      "stable_tag": "f39-container-updates",
      "testing_tag": "f39-container-updates-testing",
      "candidate_tag": "f39-container-updates-candidate",
      "pending_signing_tag": "",
      "pending_testing_tag": "f39-container-updates-testing-pending",
      "pending_stable_tag": "f39-container-updates-pending",
      "override_tag": "f39-container-override",
      "mail_template": "fedora_errata_template",
      "state": "current",
      "composed_by_bodhi": true,
      "create_automatic_updates": false,
      "package_manager": "unspecified",
      "testing_repository": null,
      "released_on": null,
      "eol": "2024-11-12",
      "setting_status": null
    },
    {
      "name": "F39F",
      "long_name": "Fedora 39 Flatpaks",
      "version": "39",
      "id_prefix": "FEDORA-FLATPAK",
      "branch": "f39",
      "dist_tag": "f39-flatpak",
      "stable_tag": "f39-flatpak-updates",
      "testing_tag": "f39-flatpak-updates-testing",
      "candidate_tag": "f39-flatpak-updates-candidate",
      "pending_signing_tag": "",
      "pending_testing_tag": "f39-flatpak-updates-testing-pending",
      "pending_stable_tag": "f39-flatpak-updates-pending",
      "override_tag": "f39-flatpak-override",
      "mail_template": "fedora_errata_template",
      "state": "current",
      "composed_by_bodhi": true,
      "create_automatic_updates": false,
      "package_manager": "unspecified",
      "testing_repository": null,
      "released_on": null,
      "eol": "2024-11-12",
      "setting_status": null
    },
    {
      "name": "F40",
      "long_name": "Fedora 40",
      "version": "40",
      "id_prefix": "FEDORA",
      "branch": "f40",
      "dist_tag": "f40",
      "stable_tag": "f40-updates",
      "testing_tag": "f40-updates-testing",
      "candidate_tag": "f40-updates-candidate",
      "pending_signing_tag": "f40-signing-pending",
      "pending_testing_tag": "f40-updates-testing-pending",
      "pending_stable_tag": "f40-updates-pending",
      "override_tag": "f40-override",
      "mail_template": "fedora_errata_template",
      "state": "current",
      "composed_by_bodhi": true,
      "create_automatic_updates": false,
      "package_manager": "dnf",
      "testing_repository": "updates-testing",
      "released_on": null,
      "eol": "2025-05-13",
      "setting_status": null
    },
    {
      "name": "F40C",
      "long_name": "Fedora 40 Containers",
      "version": "40",
      "id_prefix": "FEDORA-CONTAINER",
      "branch": "f40",
      "dist_tag": "f40-container",
      "stable_tag": "f40-container-updates",
      "testing_tag": "f40-container-updates-testing",
      "candidate_tag": "f40-container-updates-candidate",
      "pending_signing_tag": "",
      "pending_testing_tag": "f40-container-updates-testing-pending",
      "pending_stable_tag": "f40-container-updates-pending",
      "override_tag": "f40-container-override",
      "mail_template": "fedora_errata_template",
      "state": "current",
      "composed_by_bodhi": true,
      "create_automatic_updates": false,
      "package_manager": "unspecified",
      "testing_repository": null,
      "released_on": null,
      "eol": null,
      "setting_status": null
    }
  ],
  "page": 1,
  "pages": 2,
  "rows_per_page": 10,
  "total": 17
}
